Ackermann
Batliner
Beck
Biedermann
Brogle
Brunhart
Bucher
Burkhard
Caluori
Corba
Eberle
Eigenmann
Erni
Feger
Fehr
Fischer
Frick
Frommelt
Gantenbein
Gassner
Gerster
Gubser
Haas
Hasler
Hassler
Heeb
Heidegger
Hermann
Hoch
Hofer
Hohenlohe-Langenburg
Hoop
Jehle
Kaiser
Kaplan
Kaufmann
Keller
Kieber
Kindle
Klein
Klingler
Koller
Konrad
Kosic
Kothbauer
Kranz
Kunz
Kühne
Küng
Lampert
Langenbahn
Lingg
Maierhofer
Malin
Marxer
Matt
Meier
Meyer
Mjasoedov
Moser
Nigg
Näscher
Pedrazzini
Pfiffner
Pfister
Quaderer
Reichl
Rheinberger
Risch
Ritter
Rohrer
Rotter
Schlegel
Schneider
Schädler
Seeger
Seger
Sele
Sprecher
Sprenger
Stocker
Strub
Tschopp
Uhlmann
Vogeli
Vogt
Walch
Walser
Walter
Wanger
Weirather
Wenzel
Wieser
Wilczek
Wille
Wohlwend
Wolf
Wolff
Wolfinger
Wunder
Zech
Zimmermann
Zwiefelhofer
